{
    "data": [
        {
            "account_id": 1,
            "bank_name": "BB",
            "agency_number": "BRA013",
            "account_number": "39401039",
            "balance_start": 200.16,
            "created_at": "2021-05-03T17:50:16.000000Z",
            "updated_at": "2021-05-03T19:45:28.000000Z"
        },
        {
            "account_id": 2,
            "bank_name": "Kunze, Kilback and Weber",
            "agency_number": "28845381",
            "account_number": "2003427881",
            "balance_start": 154491.26,
            "created_at": "2021-05-03T17:50:16.000000Z",
            "updated_at": "2021-05-03T17:50:16.000000Z"
        }
    ],
    "links": {
        "first": "http://127.0.0.1:8000/api/bank-account?page=1",
        "last": "http://127.0.0.1:8000/api/bank-account?page=1",
        "prev": null,
        "next": null
    },
    "meta": {
        "current_page": 1,
        "from": 1,
        "last_page": 1,
        "links": [
            {
                "url": null,
                "label": "&laquo; Anterior",
                "active": false
            },
            {
                "url": "http://127.0.0.1:8000/api/bank-account?page=1",
                "label": "1",
                "active": true
            },
            {
                "url": null,
                "label": "Próximo &raquo;",
                "active": false
            }
        ],
        "path": "http://127.0.0.1:8000/api/bank-account",
        "per_page": 15,
        "to": 13,
        "total": 13
    }
}