{
    "message": "The given data was invalid.",
    "errors": {
        "bank_name": [
            "O campo bank_name é obrigatório.",
            "O campo bank_name não pode ser superior a 255 caracteres."
        ],
        "agency_number": [
            "O campo agency_number é obrigatório.",
            "O campo agency_number não pode ser superior a 10 caracteres."            
        ],
        "account_number": [
            "O campo account_number é obrigatório.",
            "O campo account_number não pode ser superior a 10 caracteres."
        ],
        "balance_start": [
            "O campo balance_start é obrigatório.",
            "O campo balance_start deve ser um número."
        ]
    }
}