{
    "message": "The given data was invalid.",
    "errors": {
        "provider_id": [
            "O campo provider_id deve ter um valor.",
            "O campo provider_id deve ser um número inteiro.",
            "O campo provider_id selecionado é inválido."
        ],
        "description": [
            "O campo description deve ter um valor.",
            "O campo description não pode ser superior a 255 caracteres."
        ],
        "value": [
            "O campo value deve ter um valor.",
            "O campo value deve ser um número."
        ]
    }
}
