{
    "data": [
        {
            "id": 1,
            "name": "Nome Atualizado 2",
            "phone": "(469) 672-3724",
            "address": "Novo Endereço",
            "email": "harry19@example.com",
            "created_at": "2021-05-01T19:24:55.000000Z",
            "updated_at": "2021-05-01T20:28:19.000000Z",
            "debts": [
                {
                    "debt_id": 1,
                    "provider_id": 1,
                    "description": "teste teste teste",
                    "value": 10.1,
                    "payed_at": null,
                    "created_at": "2021-05-08T14:43:35.000000Z",
                    "updated_at": "2021-05-09T15:03:36.000000Z"
                },
                {
                    "debt_id": 3,
                    "provider_id": 1,
                    "description": "teste teste teste",
                    "value": 10.1,
                    "payed_at": null,
                    "created_at": "2021-05-10T22:38:08.000000Z",
                    "updated_at": "2021-05-10T22:38:08.000000Z"
                }
            ]
        },
        {
            "id": 2,
            "name": "Mr. Leland Turcotte MD",
            "phone": "+18656291273",
            "address": "1225 Dewitt Stravenue Apt. 158\nEast Dexterview, NV 61312",
            "email": "vivian.bartoletti@example.org",
            "created_at": "2021-05-01T19:24:55.000000Z",
            "updated_at": "2021-05-01T19:24:55.000000Z",
            "debts": []
        },
        {
            "id": 5,
            "name": "Rose Graham",
            "phone": "+1 (743) 965-6878",
            "address": "22762 Kristy Pass Apt. 661\nPort Dean, KS 84062-8616",
            "email": "tschumm@example.net",
            "created_at": "2021-05-01T19:24:56.000000Z",
            "updated_at": "2021-05-01T19:24:56.000000Z",
            "debts": []
        }
    ],
    "links": {
        "first": "http://127.0.0.1:8000/api/provider?page=1",
        "last": "http://127.0.0.1:8000/api/provider?page=5",
        "prev": null,
        "next": "http://127.0.0.1:8000/api/provider?page=2"
    },
    "meta": {
        "current_page": 1,
        "from": 1,
        "last_page": 5,
        "links": [
            {
                "url": null,
                "label": "&laquo; Anterior",
                "active": false
            },
            {
                "url": "http://127.0.0.1:8000/api/provider?page=1",
                "label": "1",
                "active": true
            },
            {
                "url": "http://127.0.0.1:8000/api/provider?page=2",
                "label": "2",
                "active": false
            },
            {
                "url": "http://127.0.0.1:8000/api/provider?page=3",
                "label": "3",
                "active": false
            },
            {
                "url": "http://127.0.0.1:8000/api/provider?page=4",
                "label": "4",
                "active": false
            },
            {
                "url": "http://127.0.0.1:8000/api/provider?page=5",
                "label": "5",
                "active": false
            },
            {
                "url": "http://127.0.0.1:8000/api/provider?page=2",
                "label": "Próximo &raquo;",
                "active": false
            }
        ],
        "path": "http://127.0.0.1:8000/api/provider",
        "per_page": 15,
        "to": 15,
        "total": 63
    }
}
