{
    "message": "The given data was invalid.",
    "errors": {
        "name": [
            "O campo name não pode ser superior a 255 caracteres.",
            "O campo name deve ter um valor."
        ],
        "address": [
            "O campo address não pode ser superior a 255 caracteres.",
            "O campo address deve ter um valor."
        ],
        "email": [
            "O campo email deve ser um endereço de e-mail válido.",
            "O campo email não pode ser superior a 20 caracteres.",
            "O campo email deve ter um valor."
        ],
        "phone": [
            "O campo phone não pode ser superior a 20 caracteres.",
            "O campo phone deve ter um valor."
        ]
    }
}